Entrega Grupal
…
Pregunta 2

¿Cuál es el partido ganador en los municipios de más de 100 000 habitantes de censo en cada una de las elecciones.

datos_elecciones_tidy |> 
  group_by(fecha, cod_mun) |> 
  filter(censo > 100000) |> 
  slice_max(votos, n = 1) |> 
  select(fecha, municipio, votos, siglas, censo)

Adding missing grouping variables: `cod_mun`

# A tibble: 282 × 6
# Groups:   fecha, cod_mun [282]
   cod_mun   fecha      municipio             votos siglas  censo
   <glue>    <date>     <chr>                 <dbl> <chr>   <dbl>
 1 01-04-013 2008-03-01 Almería               49463 PP     134948
 2 01-11-012 2008-03-01 Cádiz                 32798 PSOE   106478
 3 01-11-020 2008-03-01 Jerez de la Frontera  55811 PSOE   158933
 4 01-14-021 2008-03-01 Córdoba               89057 PP     258020
 5 01-18-087 2008-03-01 Granada               73764 PP     191003
 6 01-21-041 2008-03-01 Huelva                37930 PSOE   114714
 7 01-29-067 2008-03-01 Málaga               135722 PSOE   423352
 8 01-41-091 2008-03-01 Sevilla              210050 PSOE   550377
 9 02-50-297 2008-03-01 Zaragoza             173636 PSOE   495871
10 03-33-024 2008-03-01 Gijón                 82534 PSOE   232858
# ℹ 272 more rows
…
¿En qué municipios de más 2000 habitantes de censo, provincias o autonomías la diferencia entre el ganador y el segundo es más elevada?

diferencia <-
  datos_elecciones_tidy |> 
  filter(censo > 2000) |> 
  filter(fecha == max(fecha)) |> 
  group_by(municipio) |> 
  summarize(diferencia = max(votos) - max(votos[votos != max(votos)])) |> 
  arrange(desc(diferencia))

diferencia |> 
  inner_join(datos_ganadores, by = "municipio") |> 
  select(municipio, diferencia, ganador)

# A tibble: 1,943 × 3
   municipio      diferencia ganador
   <chr>               <dbl> <chr>  
 1 Barcelona          139724 OTROS  
 2 Sevilla             38475 PSOE   
 3 Pamplona/Iruña      33654 OTROS  
 4 Bilbao              27196 PNV    
 5 Zaragoza            24971 PSOE   
 6 Vigo                22897 PSOE   
 7 Málaga              21083 PSOE   
 8 Gijón               17374 PSOE   
 9 Madrid              16084 PP     
10 Terrassa            14548 OTROS  
# ℹ 1,933 more rows

diferencia <-
  datos_elecciones_tidy |> 
  filter(censo > 2000) |> 
  filter(fecha == max(fecha)) |> 
  group_by(municipio) |> 
  summarize(diferencia = max(votos) - max(votos[votos != max(votos)])) |> 
  arrange(desc(diferencia))

diferencia |> 
  inner_join(datos_ganadores, by = "municipio") |> 
  select(municipio, diferencia, ganador)

# A tibble: 1,943 × 3
   municipio      diferencia ganador
   <chr>               <dbl> <chr>  
 1 Barcelona          139724 OTROS  
 2 Sevilla             38475 PSOE   
 3 Pamplona/Iruña      33654 OTROS  
 4 Bilbao              27196 PNV    
 5 Zaragoza            24971 PSOE   
 6 Vigo                22897 PSOE   
 7 Málaga              21083 PSOE   
 8 Gijón               17374 PSOE   
 9 Madrid              16084 PP     
10 Terrassa            14548 OTROS  
# ℹ 1,933 more rows

#Observamos que el cuando hay un claro ganador, este suele ser el PSOE (a excepción del Pais Vasco)

Pregunta 5

¿Cuáles son los municipios con mayor porcentaje de votos nulos de España?

datos_elecciones_tidy |> 
  mutate(por_nul = votos_nulos/votos_candidaturas *100) |> 
  distinct(municipio, .keep_all = TRUE) |> 
  arrange(desc(por_nul)) |> 
  select(por_nul, municipio)

# A tibble: 8,118 × 2
   por_nul municipio             
     <dbl> <chr>                 
 1   16.7  Requena de Campos     
 2   15.6  Narrillos del Rebollar
 3   12.5  Encinasola            
 4   12.5  Estepa de San Juan    
 5   11.5  Valdehijaderos        
 6   11.1  Valdevacas de Montejo 
 7    8.82 Piérnigas             
 8    8.60 Barrachina            
 9    8.57 Sarriés/Sartze        
10    8.45 Peñalén               
# ℹ 8,108 more rows
…
Pregunta 6

¿En qué sitios hay mayor participación? ¿Quién ganó en los sitios con mayor participación y donde menos? ¿A quién le beneficia la baja participación?

datos_participacion <-
datos_ganadores|>
  mutate(participacion = (votos_blancos + votos_nulos + votos_candidaturas)/censo*100) 
# sitios con mayor participacion y sus ganadores
datos_participacion |> 
  distinct(cod_mun, .keep_all = TRUE) |> 
  #group_by(fecha) |> # Ahora mismo no es necesario pq solo estan la ultima
  arrange(desc(participacion)) |> 
  select(fecha, cod_mun, participacion, ganador)

# A tibble: 8,131 × 4
   fecha      cod_mun   participacion ganador
   <date>     <glue>            <dbl> <chr>  
 1 2019-11-01 08-09-184           100 UP     
 2 2019-11-01 07-16-275           100 PP     
 3 2019-11-01 07-19-010           100 PSOE   
 4 2019-11-01 07-19-031           100 PP     
 5 2019-11-01 07-19-049           100 PSOE   
 6 2019-11-01 07-19-097           100 PP     
 7 2019-11-01 07-19-284           100 PSOE   
 8 2019-11-01 07-19-310           100 PSOE   
 9 2019-11-01 16-26-030           100 PP     
10 2019-11-01 16-26-048           100 PP     
# ℹ 8,121 more rows

# sitios con menor participacion y sus ganadores
datos_participacion |> 
  distinct(cod_mun, .keep_all = TRUE) |> 
  #group_by(fecha) |> # Ahora mismo no es necesario pq solo estan la ultima
  arrange((participacion)) |> 
  select(fecha, cod_mun, participacion, ganador)

# A tibble: 8,131 × 4
   fecha      cod_mun   participacion ganador
   <date>     <glue>            <dbl> <chr>  
 1 2019-11-01 08-24-171          40.4 PSOE   
 2 2019-11-01 08-37-047          41.4 PP     
 3 2019-11-01 13-31-137          41.9 OTROS  
 4 2019-11-01 08-37-334          42.3 PP     
 5 2019-11-01 13-31-244          43.9 OTROS  
 6 2019-11-01 13-31-102          44.4 OTROS  
 7 2019-11-01 02-50-275          45.0 PP     
 8 2019-11-01 14-01-016          45.3 PNV    
 9 2019-11-01 03-33-028          45.4 PSOE   
10 2019-11-01 09-25-045          45.6 OTROS  
# ℹ 8,121 more rows
…
Pregunta 11

¿Qué casas encuestadores acertaron más y cuales se desviaron más de los resultados?

#MAS ACIERTO
elecciones_encuestas |> summarise(media_error = mean(abs(per_votos - votos_e)), .by = c(fecha.y, media)) |> 
  arrange(media_error)

# A tibble: 39 × 3
   fecha.y    media               media_error
   <date>     <chr>                     <dbl>
 1 2019-11-10 PRENSA IBÉRICA             3.89
 2 2019-04-28 EL INDEPENDIENTE           4.81
 3 2019-11-10 INFOLIBRE                  4.98
 4 2019-11-10 RTVE–FORTA                 5.16
 5 2019-11-10 EL PERIÓDIC ANDORRA        5.23
 6 2019-04-28 RTVE–FORTA                 5.28
 7 2019-11-10 EL PERIÓDICO               5.48
 8 2019-04-28 COPE                       5.49
 9 2019-04-28 LA VOZ DE GALICIA          5.63
10 2019-11-10 EL MUNDO                   5.65
# ℹ 29 more rows

#MENOS ACIERTO
elecciones_encuestas |> summarise(media_error = mean(abs(per_votos - votos_e)), .by = c(fecha.y, media)) |> 
  drop_na(media) |> 
  arrange(desc(media_error)) 

# A tibble: 37 × 3
   fecha.y    media         media_error
   <date>     <chr>               <dbl>
 1 2019-11-10 LA SEXTA             8.14
 2 2019-11-10 EL PAÍS              7.34
 3 2019-04-28 EL PERIÓDICO         7.21
 4 2019-04-28 ELDIARIO.ES          6.99
 5 2019-11-10 LA VANGUARDIA        6.99
 6 2019-11-10 ESDIARIO             6.86
 7 2019-04-28 LA RAZÓN             6.84
 8 2019-11-10 LA RAZÓN             6.78
 9 2019-11-10 ELECTOMANÍA          6.61
10 2019-11-10 ELDIARIO.ES          6.58
# ℹ 27 more rows
